<?xml version="1.0" encoding="UTF-8"?>
<!-- Do not edit this file with editors other than draw.io -->
<!DOCTYPE svg PUBLIC "-//W3C//DTD SVG 1.1//EN" "http://www.w3.org/Graphics/SVG/1.1/DTD/svg11.dtd">
<svg xmlns="http://www.w3.org/2000/svg" xmlns:xlink="http://www.w3.org/1999/xlink" version="1.1" width="999px" height="430px" viewBox="-0.5 -0.5 999 430" content="&lt;mxfile host=&quot;Electron&quot; agent=&quot;Mozilla/5.0 (X11; Linux x86_64) AppleWebKit/537.36 (KHTML, like Gecko) draw.io/25.0.2 Chrome/128.0.6613.186 Electron/32.2.5 Safari/537.36&quot; version=&quot;25.0.2&quot; scale=&quot;1&quot; border=&quot;0&quot;&gt;&#10;  &lt;diagram name=&quot;07 - Estudiante ve Contenido&quot; id=&quot;3IHtHYBB25iFaImxeh5A&quot;&gt;&#10;    &lt;mxGraphModel dx=&quot;3984&quot; dy=&quot;834&quot; grid=&quot;1&quot; gridSize=&quot;10&quot; guides=&quot;1&quot; tooltips=&quot;1&quot; connect=&quot;1&quot; arrows=&quot;1&quot; fold=&quot;1&quot; page=&quot;1&quot; pageScale=&quot;1&quot; pageWidth=&quot;850&quot; pageHeight=&quot;1100&quot; math=&quot;0&quot; shadow=&quot;0&quot; extFonts=&quot;Permanent Marker^https://fonts.googleapis.com/css?family=Permanent+Marker&quot;&gt;&#10;      &lt;root&gt;&#10;        &lt;mxCell id=&quot;5vKg-feYRewpgBYi0P5z-0&quot; /&gt;&#10;        &lt;mxCell id=&quot;5vKg-feYRewpgBYi0P5z-1&quot; parent=&quot;5vKg-feYRewpgBYi0P5z-0&quot; /&gt;&#10;        &lt;mxCell id=&quot;5vKg-feYRewpgBYi0P5z-3&quot; value=&quot;Estudiante&quot; style=&quot;shape=table;startSize=30;container=1;collapsible=1;childLayout=tableLayout;fixedRows=1;rowLines=0;fontStyle=1;align=center;resizeLast=1;&quot; vertex=&quot;1&quot; parent=&quot;5vKg-feYRewpgBYi0P5z-1&quot;&gt;&#10;          &lt;mxGeometry x=&quot;-1760&quot; y=&quot;560&quot; width=&quot;165&quot; height=&quot;100&quot; as=&quot;geometry&quot; /&gt;&#10;        &lt;/mxCell&gt;&#10;        &lt;mxCell id=&quot;5vKg-feYRewpgBYi0P5z-4&quot; value=&quot;&quot; style=&quot;shape=partialRectangle;collapsible=0;dropTarget=0;pointerEvents=0;fillColor=none;points=[[0,0.5],[1,0.5]];portConstraint=eastwest;top=0;left=0;right=0;bottom=1;&quot; vertex=&quot;1&quot; parent=&quot;5vKg-feYRewpgBYi0P5z-3&quot;&gt;&#10;          &lt;mxGeometry y=&quot;30&quot; width=&quot;165&quot; height=&quot;30&quot; as=&quot;geometry&quot; /&gt;&#10;        &lt;/mxCell&gt;&#10;        &lt;mxCell id=&quot;5vKg-feYRewpgBYi0P5z-5&quot; value=&quot;PK&quot; style=&quot;shape=partialRectangle;overflow=hidden;connectable=0;fillColor=none;top=0;left=0;bottom=0;right=0;fontStyle=1;&quot; vertex=&quot;1&quot; parent=&quot;5vKg-feYRewpgBYi0P5z-4&quot;&gt;&#10;          &lt;mxGeometry width=&quot;30&quot; height=&quot;30&quot; as=&quot;geometry&quot;&gt;&#10;            &lt;mxRectangle width=&quot;30&quot; height=&quot;30&quot; as=&quot;alternateBounds&quot; /&gt;&#10;          &lt;/mxGeometry&gt;&#10;        &lt;/mxCell&gt;&#10;        &lt;mxCell id=&quot;5vKg-feYRewpgBYi0P5z-6&quot; value=&quot;id int NOT NULL &quot; style=&quot;shape=partialRectangle;overflow=hidden;connectable=0;fillColor=none;top=0;left=0;bottom=0;right=0;align=left;spacingLeft=6;fontStyle=5;&quot; vertex=&quot;1&quot; parent=&quot;5vKg-feYRewpgBYi0P5z-4&quot;&gt;&#10;          &lt;mxGeometry x=&quot;30&quot; width=&quot;135&quot; height=&quot;30&quot; as=&quot;geometry&quot;&gt;&#10;            &lt;mxRectangle width=&quot;135&quot; height=&quot;30&quot; as=&quot;alternateBounds&quot; /&gt;&#10;          &lt;/mxGeometry&gt;&#10;        &lt;/mxCell&gt;&#10;        &lt;mxCell id=&quot;5vKg-feYRewpgBYi0P5z-7&quot; value=&quot;&quot; style=&quot;shape=partialRectangle;collapsible=0;dropTarget=0;pointerEvents=0;fillColor=none;points=[[0,0.5],[1,0.5]];portConstraint=eastwest;top=0;left=0;right=0;bottom=0;&quot; vertex=&quot;1&quot; parent=&quot;5vKg-feYRewpgBYi0P5z-3&quot;&gt;&#10;          &lt;mxGeometry y=&quot;60&quot; width=&quot;165&quot; height=&quot;30&quot; as=&quot;geometry&quot; /&gt;&#10;        &lt;/mxCell&gt;&#10;        &lt;mxCell id=&quot;5vKg-feYRewpgBYi0P5z-8&quot; value=&quot;FK1&quot; style=&quot;shape=partialRectangle;overflow=hidden;connectable=0;fillColor=none;top=0;left=0;bottom=0;right=0;&quot; vertex=&quot;1&quot; parent=&quot;5vKg-feYRewpgBYi0P5z-7&quot;&gt;&#10;          &lt;mxGeometry width=&quot;30&quot; height=&quot;30&quot; as=&quot;geometry&quot;&gt;&#10;            &lt;mxRectangle width=&quot;30&quot; height=&quot;30&quot; as=&quot;alternateBounds&quot; /&gt;&#10;          &lt;/mxGeometry&gt;&#10;        &lt;/mxCell&gt;&#10;        &lt;mxCell id=&quot;5vKg-feYRewpgBYi0P5z-9&quot; value=&quot;user_id int NOT NULL&quot; style=&quot;shape=partialRectangle;overflow=hidden;connectable=0;fillColor=none;top=0;left=0;bottom=0;right=0;align=left;spacingLeft=6;&quot; vertex=&quot;1&quot; parent=&quot;5vKg-feYRewpgBYi0P5z-7&quot;&gt;&#10;          &lt;mxGeometry x=&quot;30&quot; width=&quot;135&quot; height=&quot;30&quot; as=&quot;geometry&quot;&gt;&#10;            &lt;mxRectangle width=&quot;135&quot; height=&quot;30&quot; as=&quot;alternateBounds&quot; /&gt;&#10;          &lt;/mxGeometry&gt;&#10;        &lt;/mxCell&gt;&#10;        &lt;mxCell id=&quot;5vKg-feYRewpgBYi0P5z-114&quot; value=&quot;likert&quot; style=&quot;shape=table;startSize=30;container=1;collapsible=1;childLayout=tableLayout;fixedRows=1;rowLines=0;fontStyle=1;align=center;resizeLast=1;&quot; vertex=&quot;1&quot; parent=&quot;5vKg-feYRewpgBYi0P5z-1&quot;&gt;&#10;          &lt;mxGeometry x=&quot;-2309.9999999999995&quot; y=&quot;725&quot; width=&quot;235&quot; height=&quot;105&quot; as=&quot;geometry&quot; /&gt;&#10;        &lt;/mxCell&gt;&#10;        &lt;mxCell id=&quot;5vKg-feYRewpgBYi0P5z-115&quot; value=&quot;&quot; style=&quot;shape=partialRectangle;collapsible=0;dropTarget=0;pointerEvents=0;fillColor=none;points=[[0,0.5],[1,0.5]];portConstraint=eastwest;top=0;left=0;right=0;bottom=1;&quot; vertex=&quot;1&quot; parent=&quot;5vKg-feYRewpgBYi0P5z-114&quot;&gt;&#10;          &lt;mxGeometry y=&quot;30&quot; width=&quot;235&quot; height=&quot;30&quot; as=&quot;geometry&quot; /&gt;&#10;        &lt;/mxCell&gt;&#10;        &lt;mxCell id=&quot;5vKg-feYRewpgBYi0P5z-116&quot; value=&quot;PK&quot; style=&quot;shape=partialRectangle;overflow=hidden;connectable=0;fillColor=none;top=0;left=0;bottom=0;right=0;fontStyle=1;&quot; vertex=&quot;1&quot; parent=&quot;5vKg-feYRewpgBYi0P5z-115&quot;&gt;&#10;          &lt;mxGeometry width=&quot;30&quot; height=&quot;30&quot; as=&quot;geometry&quot;&gt;&#10;            &lt;mxRectangle width=&quot;30&quot; height=&quot;30&quot; as=&quot;alternateBounds&quot; /&gt;&#10;          &lt;/mxGeometry&gt;&#10;        &lt;/mxCell&gt;&#10;        &lt;mxCell id=&quot;5vKg-feYRewpgBYi0P5z-117&quot; value=&quot;id int NOT NULL &quot; style=&quot;shape=partialRectangle;overflow=hidden;connectable=0;fillColor=none;top=0;left=0;bottom=0;right=0;align=left;spacingLeft=6;fontStyle=5;&quot; vertex=&quot;1&quot; parent=&quot;5vKg-feYRewpgBYi0P5z-115&quot;&gt;&#10;          &lt;mxGeometry x=&quot;30&quot; width=&quot;205&quot; height=&quot;30&quot; as=&quot;geometry&quot;&gt;&#10;            &lt;mxRectangle width=&quot;205&quot; height=&quot;30&quot; as=&quot;alternateBounds&quot; /&gt;&#10;          &lt;/mxGeometry&gt;&#10;        &lt;/mxCell&gt;&#10;        &lt;mxCell id=&quot;5vKg-feYRewpgBYi0P5z-118&quot; value=&quot;&quot; style=&quot;shape=partialRectangle;collapsible=0;dropTarget=0;pointerEvents=0;fillColor=none;points=[[0,0.5],[1,0.5]];portConstraint=eastwest;top=0;left=0;right=0;bottom=0;&quot; vertex=&quot;1&quot; parent=&quot;5vKg-feYRewpgBYi0P5z-114&quot;&gt;&#10;          &lt;mxGeometry y=&quot;60&quot; width=&quot;235&quot; height=&quot;35&quot; as=&quot;geometry&quot; /&gt;&#10;        &lt;/mxCell&gt;&#10;        &lt;mxCell id=&quot;5vKg-feYRewpgBYi0P5z-119&quot; value=&quot;FK&amp;#xa;&quot; style=&quot;shape=partialRectangle;overflow=hidden;connectable=0;fillColor=none;top=0;left=0;bottom=0;right=0;&quot; vertex=&quot;1&quot; parent=&quot;5vKg-feYRewpgBYi0P5z-118&quot;&gt;&#10;          &lt;mxGeometry width=&quot;30&quot; height=&quot;35&quot; as=&quot;geometry&quot;&gt;&#10;            &lt;mxRectangle width=&quot;30&quot; height=&quot;35&quot; as=&quot;alternateBounds&quot; /&gt;&#10;          &lt;/mxGeometry&gt;&#10;        &lt;/mxCell&gt;&#10;        &lt;mxCell id=&quot;5vKg-feYRewpgBYi0P5z-120&quot; value=&quot;autoevaluacion_id int NOT NULL&amp;#xa;enunciado varchar(255) NOT NULL&quot; style=&quot;shape=partialRectangle;overflow=hidden;connectable=0;fillColor=none;top=0;left=0;bottom=0;right=0;align=left;spacingLeft=6;&quot; vertex=&quot;1&quot; parent=&quot;5vKg-feYRewpgBYi0P5z-118&quot;&gt;&#10;          &lt;mxGeometry x=&quot;30&quot; width=&quot;205&quot; height=&quot;35&quot; as=&quot;geometry&quot;&gt;&#10;            &lt;mxRectangle width=&quot;205&quot; height=&quot;35&quot; as=&quot;alternateBounds&quot; /&gt;&#10;          &lt;/mxGeometry&gt;&#10;        &lt;/mxCell&gt;&#10;        &lt;mxCell id=&quot;5vKg-feYRewpgBYi0P5z-129&quot; value=&quot;Contenido&quot; style=&quot;shape=table;startSize=30;container=1;collapsible=1;childLayout=tableLayout;fixedRows=1;rowLines=0;fontStyle=1;align=center;resizeLast=1;&quot; vertex=&quot;1&quot; parent=&quot;5vKg-feYRewpgBYi0P5z-1&quot;&gt;&#10;          &lt;mxGeometry x=&quot;-2020&quot; y=&quot;790&quot; width=&quot;371&quot; height=&quot;130&quot; as=&quot;geometry&quot; /&gt;&#10;        &lt;/mxCell&gt;&#10;        &lt;mxCell id=&quot;5vKg-feYRewpgBYi0P5z-130&quot; value=&quot;&quot; style=&quot;shape=partialRectangle;collapsible=0;dropTarget=0;pointerEvents=0;fillColor=none;points=[[0,0.5],[1,0.5]];portConstraint=eastwest;top=0;left=0;right=0;bottom=1;&quot; vertex=&quot;1&quot; parent=&quot;5vKg-feYRewpgBYi0P5z-129&quot;&gt;&#10;          &lt;mxGeometry y=&quot;30&quot; width=&quot;371&quot; height=&quot;30&quot; as=&quot;geometry&quot; /&gt;&#10;        &lt;/mxCell&gt;&#10;        &lt;mxCell id=&quot;5vKg-feYRewpgBYi0P5z-131&quot; value=&quot;PK&quot; style=&quot;shape=partialRectangle;overflow=hidden;connectable=0;fillColor=none;top=0;left=0;bottom=0;right=0;fontStyle=1;&quot; vertex=&quot;1&quot; parent=&quot;5vKg-feYRewpgBYi0P5z-130&quot;&gt;&#10;          &lt;mxGeometry width=&quot;30&quot; height=&quot;30&quot; as=&quot;geometry&quot;&gt;&#10;            &lt;mxRectangle width=&quot;30&quot; height=&quot;30&quot; as=&quot;alternateBounds&quot; /&gt;&#10;          &lt;/mxGeometry&gt;&#10;        &lt;/mxCell&gt;&#10;        &lt;mxCell id=&quot;5vKg-feYRewpgBYi0P5z-132&quot; value=&quot;id int NOT NULL &quot; style=&quot;shape=partialRectangle;overflow=hidden;connectable=0;fillColor=none;top=0;left=0;bottom=0;right=0;align=left;spacingLeft=6;fontStyle=5;&quot; vertex=&quot;1&quot; parent=&quot;5vKg-feYRewpgBYi0P5z-130&quot;&gt;&#10;          &lt;mxGeometry x=&quot;30&quot; width=&quot;341&quot; height=&quot;30&quot; as=&quot;geometry&quot;&gt;&#10;            &lt;mxRectangle width=&quot;341&quot; height=&quot;30&quot; as=&quot;alternateBounds&quot; /&gt;&#10;          &lt;/mxGeometry&gt;&#10;        &lt;/mxCell&gt;&#10;        &lt;mxCell id=&quot;5vKg-feYRewpgBYi0P5z-133&quot; value=&quot;&quot; style=&quot;shape=partialRectangle;collapsible=0;dropTarget=0;pointerEvents=0;fillColor=none;points=[[0,0.5],[1,0.5]];portConstraint=eastwest;top=0;left=0;right=0;bottom=0;&quot; vertex=&quot;1&quot; parent=&quot;5vKg-feYRewpgBYi0P5z-129&quot;&gt;&#10;          &lt;mxGeometry y=&quot;60&quot; width=&quot;371&quot; height=&quot;60&quot; as=&quot;geometry&quot; /&gt;&#10;        &lt;/mxCell&gt;&#10;        &lt;mxCell id=&quot;5vKg-feYRewpgBYi0P5z-134&quot; value=&quot;FK&amp;#xa;&quot; style=&quot;shape=partialRectangle;overflow=hidden;connectable=0;fillColor=none;top=0;left=0;bottom=0;right=0;&quot; vertex=&quot;1&quot; parent=&quot;5vKg-feYRewpgBYi0P5z-133&quot;&gt;&#10;          &lt;mxGeometry width=&quot;30&quot; height=&quot;60&quot; as=&quot;geometry&quot;&gt;&#10;            &lt;mxRectangle width=&quot;30&quot; height=&quot;60&quot; as=&quot;alternateBounds&quot; /&gt;&#10;          &lt;/mxGeometry&gt;&#10;        &lt;/mxCell&gt;&#10;        &lt;mxCell id=&quot;5vKg-feYRewpgBYi0P5z-135&quot; value=&quot;módulo_id int NOT NULL&amp;#xa;tipo ENUM (&amp;#39;Nota&amp;#39;, &amp;#39;Autoevaluación&amp;#39;, &amp;#39;Evaluación&amp;#39;) NOT NULL&amp;#xa;orden int NOT NULL&quot; style=&quot;shape=partialRectangle;overflow=hidden;connectable=0;fillColor=none;top=0;left=0;bottom=0;right=0;align=left;spacingLeft=6;&quot; vertex=&quot;1&quot; parent=&quot;5vKg-feYRewpgBYi0P5z-133&quot;&gt;&#10;          &lt;mxGeometry x=&quot;30&quot; width=&quot;341&quot; height=&quot;60&quot; as=&quot;geometry&quot;&gt;&#10;            &lt;mxRectangle width=&quot;341&quot; height=&quot;60&quot; as=&quot;alternateBounds&quot; /&gt;&#10;          &lt;/mxGeometry&gt;&#10;        &lt;/mxCell&gt;&#10;        &lt;mxCell id=&quot;5vKg-feYRewpgBYi0P5z-155&quot; value=&quot;Estudiante_Contenido&quot; style=&quot;shape=table;startSize=30;container=1;collapsible=1;childLayout=tableLayout;fixedRows=1;rowLines=0;fontStyle=1;align=center;resizeLast=1;&quot; vertex=&quot;1&quot; parent=&quot;5vKg-feYRewpgBYi0P5z-1&quot;&gt;&#10;          &lt;mxGeometry x=&quot;-1580&quot; y=&quot;680&quot; width=&quot;220&quot; height=&quot;116&quot; as=&quot;geometry&quot; /&gt;&#10;        &lt;/mxCell&gt;&#10;        &lt;mxCell id=&quot;5vKg-feYRewpgBYi0P5z-156&quot; value=&quot;&quot; style=&quot;shape=partialRectangle;collapsible=0;dropTarget=0;pointerEvents=0;fillColor=none;points=[[0,0.5],[1,0.5]];portConstraint=eastwest;top=0;left=0;right=0;bottom=1;&quot; vertex=&quot;1&quot; parent=&quot;5vKg-feYRewpgBYi0P5z-155&quot;&gt;&#10;          &lt;mxGeometry y=&quot;30&quot; width=&quot;220&quot; height=&quot;30&quot; as=&quot;geometry&quot; /&gt;&#10;        &lt;/mxCell&gt;&#10;        &lt;mxCell id=&quot;5vKg-feYRewpgBYi0P5z-157&quot; value=&quot;PK&quot; style=&quot;shape=partialRectangle;overflow=hidden;connectable=0;fillColor=none;top=0;left=0;bottom=0;right=0;fontStyle=1;&quot; vertex=&quot;1&quot; parent=&quot;5vKg-feYRewpgBYi0P5z-156&quot;&gt;&#10;          &lt;mxGeometry width=&quot;30&quot; height=&quot;30&quot; as=&quot;geometry&quot;&gt;&#10;            &lt;mxRectangle width=&quot;30&quot; height=&quot;30&quot; as=&quot;alternateBounds&quot; /&gt;&#10;          &lt;/mxGeometry&gt;&#10;        &lt;/mxCell&gt;&#10;        &lt;mxCell id=&quot;5vKg-feYRewpgBYi0P5z-158&quot; value=&quot;id int NOT NULL &quot; style=&quot;shape=partialRectangle;overflow=hidden;connectable=0;fillColor=none;top=0;left=0;bottom=0;right=0;align=left;spacingLeft=6;fontStyle=5;&quot; vertex=&quot;1&quot; parent=&quot;5vKg-feYRewpgBYi0P5z-156&quot;&gt;&#10;          &lt;mxGeometry x=&quot;30&quot; width=&quot;190&quot; height=&quot;30&quot; as=&quot;geometry&quot;&gt;&#10;            &lt;mxRectangle width=&quot;190&quot; height=&quot;30&quot; as=&quot;alternateBounds&quot; /&gt;&#10;          &lt;/mxGeometry&gt;&#10;        &lt;/mxCell&gt;&#10;        &lt;mxCell id=&quot;5vKg-feYRewpgBYi0P5z-159&quot; value=&quot;&quot; style=&quot;shape=partialRectangle;collapsible=0;dropTarget=0;pointerEvents=0;fillColor=none;points=[[0,0.5],[1,0.5]];portConstraint=eastwest;top=0;left=0;right=0;bottom=0;&quot; vertex=&quot;1&quot; parent=&quot;5vKg-feYRewpgBYi0P5z-155&quot;&gt;&#10;          &lt;mxGeometry y=&quot;60&quot; width=&quot;220&quot; height=&quot;46&quot; as=&quot;geometry&quot; /&gt;&#10;        &lt;/mxCell&gt;&#10;        &lt;mxCell id=&quot;5vKg-feYRewpgBYi0P5z-160&quot; value=&quot;FK1&amp;#xa;FK2&amp;#xa;&quot; style=&quot;shape=partialRectangle;overflow=hidden;connectable=0;fillColor=none;top=0;left=0;bottom=0;right=0;&quot; vertex=&quot;1&quot; parent=&quot;5vKg-feYRewpgBYi0P5z-159&quot;&gt;&#10;          &lt;mxGeometry width=&quot;30&quot; height=&quot;46&quot; as=&quot;geometry&quot;&gt;&#10;            &lt;mxRectangle width=&quot;30&quot; height=&quot;46&quot; as=&quot;alternateBounds&quot; /&gt;&#10;          &lt;/mxGeometry&gt;&#10;        &lt;/mxCell&gt;&#10;        &lt;mxCell id=&quot;5vKg-feYRewpgBYi0P5z-161&quot; value=&quot;estudiante_id int NOT NULL&amp;#xa;contenido_id int NOT NULL&amp;#xa;estado varchar(255) NOT NULL&quot; style=&quot;shape=partialRectangle;overflow=hidden;connectable=0;fillColor=none;top=0;left=0;bottom=0;right=0;align=left;spacingLeft=6;&quot; vertex=&quot;1&quot; parent=&quot;5vKg-feYRewpgBYi0P5z-159&quot;&gt;&#10;          &lt;mxGeometry x=&quot;30&quot; width=&quot;190&quot; height=&quot;46&quot; as=&quot;geometry&quot;&gt;&#10;            &lt;mxRectangle width=&quot;190&quot; height=&quot;46&quot; as=&quot;alternateBounds&quot; /&gt;&#10;          &lt;/mxGeometry&gt;&#10;        &lt;/mxCell&gt;&#10;        &lt;mxCell id=&quot;5vKg-feYRewpgBYi0P5z-162&quot; value=&quot;Estudiante_Likert&quot; style=&quot;shape=table;startSize=30;container=1;collapsible=1;childLayout=tableLayout;fixedRows=1;rowLines=0;fontStyle=1;align=center;resizeLast=1;&quot; vertex=&quot;1&quot; parent=&quot;5vKg-feYRewpgBYi0P5z-1&quot;&gt;&#10;          &lt;mxGeometry x=&quot;-2030&quot; y=&quot;630&quot; width=&quot;230&quot; height=&quot;120&quot; as=&quot;geometry&quot; /&gt;&#10;        &lt;/mxCell&gt;&#10;        &lt;mxCell id=&quot;5vKg-feYRewpgBYi0P5z-163&quot; value=&quot;&quot; style=&quot;shape=partialRectangle;collapsible=0;dropTarget=0;pointerEvents=0;fillColor=none;points=[[0,0.5],[1,0.5]];portConstraint=eastwest;top=0;left=0;right=0;bottom=1;&quot; vertex=&quot;1&quot; parent=&quot;5vKg-feYRewpgBYi0P5z-162&quot;&gt;&#10;          &lt;mxGeometry y=&quot;30&quot; width=&quot;230&quot; height=&quot;30&quot; as=&quot;geometry&quot; /&gt;&#10;        &lt;/mxCell&gt;&#10;        &lt;mxCell id=&quot;5vKg-feYRewpgBYi0P5z-164&quot; value=&quot;PK&quot; style=&quot;shape=partialRectangle;overflow=hidden;connectable=0;fillColor=none;top=0;left=0;bottom=0;right=0;fontStyle=1;&quot; vertex=&quot;1&quot; parent=&quot;5vKg-feYRewpgBYi0P5z-163&quot;&gt;&#10;          &lt;mxGeometry width=&quot;30&quot; height=&quot;30&quot; as=&quot;geometry&quot;&gt;&#10;            &lt;mxRectangle width=&quot;30&quot; height=&quot;30&quot; as=&quot;alternateBounds&quot; /&gt;&#10;          &lt;/mxGeometry&gt;&#10;        &lt;/mxCell&gt;&#10;        &lt;mxCell id=&quot;5vKg-feYRewpgBYi0P5z-165&quot; value=&quot;id int NOT NULL &quot; style=&quot;shape=partialRectangle;overflow=hidden;connectable=0;fillColor=none;top=0;left=0;bottom=0;right=0;align=left;spacingLeft=6;fontStyle=5;&quot; vertex=&quot;1&quot; parent=&quot;5vKg-feYRewpgBYi0P5z-163&quot;&gt;&#10;          &lt;mxGeometry x=&quot;30&quot; width=&quot;200&quot; height=&quot;30&quot; as=&quot;geometry&quot;&gt;&#10;            &lt;mxRectangle width=&quot;200&quot; height=&quot;30&quot; as=&quot;alternateBounds&quot; /&gt;&#10;          &lt;/mxGeometry&gt;&#10;        &lt;/mxCell&gt;&#10;        &lt;mxCell id=&quot;5vKg-feYRewpgBYi0P5z-166&quot; value=&quot;&quot; style=&quot;shape=partialRectangle;collapsible=0;dropTarget=0;pointerEvents=0;fillColor=none;points=[[0,0.5],[1,0.5]];portConstraint=eastwest;top=0;left=0;right=0;bottom=0;&quot; vertex=&quot;1&quot; parent=&quot;5vKg-feYRewpgBYi0P5z-162&quot;&gt;&#10;          &lt;mxGeometry y=&quot;60&quot; width=&quot;230&quot; height=&quot;50&quot; as=&quot;geometry&quot; /&gt;&#10;        &lt;/mxCell&gt;&#10;        &lt;mxCell id=&quot;5vKg-feYRewpgBYi0P5z-167&quot; value=&quot;FK1&amp;#xa;FK2&amp;#xa;&quot; style=&quot;shape=partialRectangle;overflow=hidden;connectable=0;fillColor=none;top=0;left=0;bottom=0;right=0;&quot; vertex=&quot;1&quot; parent=&quot;5vKg-feYRewpgBYi0P5z-166&quot;&gt;&#10;          &lt;mxGeometry width=&quot;30&quot; height=&quot;50&quot; as=&quot;geometry&quot;&gt;&#10;            &lt;mxRectangle width=&quot;30&quot; height=&quot;50&quot; as=&quot;alternateBounds&quot; /&gt;&#10;          &lt;/mxGeometry&gt;&#10;        &lt;/mxCell&gt;&#10;        &lt;mxCell id=&quot;5vKg-feYRewpgBYi0P5z-168&quot; value=&quot;estudiante_id int NOT NULL&amp;#xa;likert_id int NOT NULL&amp;#xa;selection varchar(255) NOT NULL&quot; style=&quot;shape=partialRectangle;overflow=hidden;connectable=0;fillColor=none;top=0;left=0;bottom=0;right=0;align=left;spacingLeft=6;&quot; vertex=&quot;1&quot; parent=&quot;5vKg-feYRewpgBYi0P5z-166&quot;&gt;&#10;          &lt;mxGeometry x=&quot;30&quot; width=&quot;200&quot; height=&quot;50&quot; as=&quot;geometry&quot;&gt;&#10;            &lt;mxRectangle width=&quot;200&quot; height=&quot;50&quot; as=&quot;alternateBounds&quot; /&gt;&#10;          &lt;/mxGeometry&gt;&#10;        &lt;/mxCell&gt;&#10;        &lt;mxCell id=&quot;5vKg-feYRewpgBYi0P5z-170&quot; style=&quot;edgeStyle=orthogonalEdgeStyle;rounded=0;orthogonalLoop=1;jettySize=auto;html=1;exitX=1;exitY=0.5;exitDx=0;exitDy=0;entryX=0.011;entryY=0.393;entryDx=0;entryDy=0;entryPerimeter=0;&quot; edge=&quot;1&quot; parent=&quot;5vKg-feYRewpgBYi0P5z-1&quot; source=&quot;5vKg-feYRewpgBYi0P5z-115&quot; target=&quot;5vKg-feYRewpgBYi0P5z-166&quot;&gt;&#10;          &lt;mxGeometry relative=&quot;1&quot; as=&quot;geometry&quot; /&gt;&#10;        &lt;/mxCell&gt;&#10;        &lt;mxCell id=&quot;5vKg-feYRewpgBYi0P5z-171&quot; value=&quot;View_Content&quot; style=&quot;shape=table;startSize=30;container=1;collapsible=1;childLayout=tableLayout;fixedRows=1;rowLines=0;fontStyle=1;align=center;resizeLast=1;&quot; vertex=&quot;1&quot; parent=&quot;5vKg-feYRewpgBYi0P5z-1&quot;&gt;&#10;          &lt;mxGeometry x=&quot;-1580&quot; y=&quot;830&quot; width=&quot;222&quot; height=&quot;159&quot; as=&quot;geometry&quot; /&gt;&#10;        &lt;/mxCell&gt;&#10;        &lt;mxCell id=&quot;5vKg-feYRewpgBYi0P5z-172&quot; value=&quot;&quot; style=&quot;shape=partialRectangle;collapsible=0;dropTarget=0;pointerEvents=0;fillColor=none;points=[[0,0.5],[1,0.5]];portConstraint=eastwest;top=0;left=0;right=0;bottom=1;&quot; vertex=&quot;1&quot; parent=&quot;5vKg-feYRewpgBYi0P5z-171&quot;&gt;&#10;          &lt;mxGeometry y=&quot;30&quot; width=&quot;222&quot; height=&quot;30&quot; as=&quot;geometry&quot; /&gt;&#10;        &lt;/mxCell&gt;&#10;        &lt;mxCell id=&quot;5vKg-feYRewpgBYi0P5z-173&quot; value=&quot;PK&quot; style=&quot;shape=partialRectangle;overflow=hidden;connectable=0;fillColor=none;top=0;left=0;bottom=0;right=0;fontStyle=1;&quot; vertex=&quot;1&quot; parent=&quot;5vKg-feYRewpgBYi0P5z-172&quot;&gt;&#10;          &lt;mxGeometry width=&quot;30&quot; height=&quot;30&quot; as=&quot;geometry&quot;&gt;&#10;            &lt;mxRectangle width=&quot;30&quot; height=&quot;30&quot; as=&quot;alternateBounds&quot; /&gt;&#10;          &lt;/mxGeometry&gt;&#10;        &lt;/mxCell&gt;&#10;        &lt;mxCell id=&quot;5vKg-feYRewpgBYi0P5z-174&quot; value=&quot;id int NOT NULL &quot; style=&quot;shape=partialRectangle;overflow=hidden;connectable=0;fillColor=none;top=0;left=0;bottom=0;right=0;align=left;spacingLeft=6;fontStyle=5;&quot; vertex=&quot;1&quot; parent=&quot;5vKg-feYRewpgBYi0P5z-172&quot;&gt;&#10;          &lt;mxGeometry x=&quot;30&quot; width=&quot;192&quot; height=&quot;30&quot; as=&quot;geometry&quot;&gt;&#10;            &lt;mxRectangle width=&quot;192&quot; height=&quot;30&quot; as=&quot;alternateBounds&quot; /&gt;&#10;          &lt;/mxGeometry&gt;&#10;        &lt;/mxCell&gt;&#10;        &lt;mxCell id=&quot;5vKg-feYRewpgBYi0P5z-175&quot; value=&quot;&quot; style=&quot;shape=partialRectangle;collapsible=0;dropTarget=0;pointerEvents=0;fillColor=none;points=[[0,0.5],[1,0.5]];portConstraint=eastwest;top=0;left=0;right=0;bottom=0;&quot; vertex=&quot;1&quot; parent=&quot;5vKg-feYRewpgBYi0P5z-171&quot;&gt;&#10;          &lt;mxGeometry y=&quot;60&quot; width=&quot;222&quot; height=&quot;89&quot; as=&quot;geometry&quot; /&gt;&#10;        &lt;/mxCell&gt;&#10;        &lt;mxCell id=&quot;5vKg-feYRewpgBYi0P5z-176&quot; value=&quot;FK1&amp;#xa;FK2&amp;#xa;&amp;#xa;&amp;#xa;&amp;#xa;&quot; style=&quot;shape=partialRectangle;overflow=hidden;connectable=0;fillColor=none;top=0;left=0;bottom=0;right=0;&quot; vertex=&quot;1&quot; parent=&quot;5vKg-feYRewpgBYi0P5z-175&quot;&gt;&#10;          &lt;mxGeometry width=&quot;30&quot; height=&quot;89&quot; as=&quot;geometry&quot;&gt;&#10;            &lt;mxRectangle width=&quot;30&quot; height=&quot;89&quot; as=&quot;alternateBounds&quot; /&gt;&#10;          &lt;/mxGeometry&gt;&#10;        &lt;/mxCell&gt;&#10;        &lt;mxCell id=&quot;5vKg-feYRewpgBYi0P5z-177&quot; value=&quot;estudiante_id int NOT NULL&amp;#xa;contenido_id int NOT NULL&amp;#xa;start_view timestamp NOT NULL&amp;#xa;end_view timestamp&amp;#xa;time_view time&amp;#xa;porcentaje float &quot; style=&quot;shape=partialRectangle;overflow=hidden;connectable=0;fillColor=none;top=0;left=0;bottom=0;right=0;align=left;spacingLeft=6;labelBackgroundColor=default;&quot; vertex=&quot;1&quot; parent=&quot;5vKg-feYRewpgBYi0P5z-175&quot;&gt;&#10;          &lt;mxGeometry x=&quot;30&quot; width=&quot;192&quot; height=&quot;89&quot; as=&quot;geometry&quot;&gt;&#10;            &lt;mxRectangle width=&quot;192&quot; height=&quot;89&quot; as=&quot;alternateBounds&quot; /&gt;&#10;          &lt;/mxGeometry&gt;&#10;        &lt;/mxCell&gt;&#10;        &lt;mxCell id=&quot;H_vTsb7rbXK2sEGbzVfd-0&quot; style=&quot;edgeStyle=orthogonalEdgeStyle;rounded=0;orthogonalLoop=1;jettySize=auto;html=1;exitX=0;exitY=0.5;exitDx=0;exitDy=0;entryX=1;entryY=0.5;entryDx=0;entryDy=0;&quot; edge=&quot;1&quot; parent=&quot;5vKg-feYRewpgBYi0P5z-1&quot; source=&quot;5vKg-feYRewpgBYi0P5z-4&quot; target=&quot;5vKg-feYRewpgBYi0P5z-166&quot;&gt;&#10;          &lt;mxGeometry relative=&quot;1&quot; as=&quot;geometry&quot; /&gt;&#10;        &lt;/mxCell&gt;&#10;        &lt;mxCell id=&quot;H_vTsb7rbXK2sEGbzVfd-1&quot; style=&quot;edgeStyle=orthogonalEdgeStyle;rounded=0;orthogonalLoop=1;jettySize=auto;html=1;exitX=1;exitY=0.5;exitDx=0;exitDy=0;entryX=0.008;entryY=0.379;entryDx=0;entryDy=0;entryPerimeter=0;&quot; edge=&quot;1&quot; parent=&quot;5vKg-feYRewpgBYi0P5z-1&quot; source=&quot;5vKg-feYRewpgBYi0P5z-130&quot; target=&quot;5vKg-feYRewpgBYi0P5z-159&quot;&gt;&#10;          &lt;mxGeometry relative=&quot;1&quot; as=&quot;geometry&quot; /&gt;&#10;        &lt;/mxCell&gt;&#10;        &lt;mxCell id=&quot;H_vTsb7rbXK2sEGbzVfd-2&quot; style=&quot;edgeStyle=orthogonalEdgeStyle;rounded=0;orthogonalLoop=1;jettySize=auto;html=1;exitX=1;exitY=0.5;exitDx=0;exitDy=0;&quot; edge=&quot;1&quot; parent=&quot;5vKg-feYRewpgBYi0P5z-1&quot; source=&quot;5vKg-feYRewpgBYi0P5z-130&quot; target=&quot;5vKg-feYRewpgBYi0P5z-175&quot;&gt;&#10;          &lt;mxGeometry relative=&quot;1&quot; as=&quot;geometry&quot; /&gt;&#10;        &lt;/mxCell&gt;&#10;        &lt;mxCell id=&quot;H_vTsb7rbXK2sEGbzVfd-3&quot; style=&quot;edgeStyle=orthogonalEdgeStyle;rounded=0;orthogonalLoop=1;jettySize=auto;html=1;exitX=1;exitY=0.5;exitDx=0;exitDy=0;entryX=1;entryY=0.5;entryDx=0;entryDy=0;&quot; edge=&quot;1&quot; parent=&quot;5vKg-feYRewpgBYi0P5z-1&quot; source=&quot;5vKg-feYRewpgBYi0P5z-4&quot; target=&quot;5vKg-feYRewpgBYi0P5z-159&quot;&gt;&#10;          &lt;mxGeometry relative=&quot;1&quot; as=&quot;geometry&quot; /&gt;&#10;        &lt;/mxCell&gt;&#10;        &lt;mxCell id=&quot;H_vTsb7rbXK2sEGbzVfd-4&quot; style=&quot;edgeStyle=orthogonalEdgeStyle;rounded=0;orthogonalLoop=1;jettySize=auto;html=1;exitX=1;exitY=0.5;exitDx=0;exitDy=0;entryX=1;entryY=0.5;entryDx=0;entryDy=0;&quot; edge=&quot;1&quot; parent=&quot;5vKg-feYRewpgBYi0P5z-1&quot; source=&quot;5vKg-feYRewpgBYi0P5z-4&quot; target=&quot;5vKg-feYRewpgBYi0P5z-175&quot;&gt;&#10;          &lt;mxGeometry relative=&quot;1&quot; as=&quot;geometry&quot;&gt;&#10;            &lt;Array as=&quot;points&quot;&gt;&#10;              &lt;mxPoint x=&quot;-1320&quot; y=&quot;605&quot; /&gt;&#10;              &lt;mxPoint x=&quot;-1320&quot; y=&quot;935&quot; /&gt;&#10;            &lt;/Array&gt;&#10;          &lt;/mxGeometry&gt;&#10;        &lt;/mxCell&gt;&#10;      &lt;/root&gt;&#10;    &lt;/mxGraphModel&gt;&#10;  &lt;/diagram&gt;&#10;&lt;/mxfile&gt;&#10;" style="background-color: rgb(255, 255, 255);"><defs><clipPath id="mx-clip-550-30-30-30-0"><rect x="550" y="30" width="30" height="30"/></clipPath><clipPath id="mx-clip-586-30-129-30-0"><rect x="586" y="30" width="129" height="30"/></clipPath><clipPath id="mx-clip-550-60-30-30-0"><rect x="550" y="60" width="30" height="30"/></clipPath><clipPath id="mx-clip-586-60-129-30-0"><rect x="586" y="60" width="129" height="30"/></clipPath><clipPath id="mx-clip-0-195-30-30-0"><rect x="0" y="195" width="30" height="30"/></clipPath><clipPath id="mx-clip-36-195-199-30-0"><rect x="36" y="195" width="199" height="30"/></clipPath><clipPath id="mx-clip-0-225-30-35-0"><rect x="0" y="225" width="30" height="35"/></clipPath><clipPath id="mx-clip-36-225-199-35-0"><rect x="36" y="225" width="199" height="35"/></clipPath><clipPath id="mx-clip-290-260-30-30-0"><rect x="290" y="260" width="30" height="30"/></clipPath><clipPath id="mx-clip-326-260-335-30-0"><rect x="326" y="260" width="335" height="30"/></clipPath><clipPath id="mx-clip-290-290-30-60-0"><rect x="290" y="290" width="30" height="60"/></clipPath><clipPath id="mx-clip-326-290-335-60-0"><rect x="326" y="290" width="335" height="60"/></clipPath><clipPath id="mx-clip-730-150-30-30-0"><rect x="730" y="150" width="30" height="30"/></clipPath><clipPath id="mx-clip-766-150-184-30-0"><rect x="766" y="150" width="184" height="30"/></clipPath><clipPath id="mx-clip-730-180-30-46-0"><rect x="730" y="180" width="30" height="46"/></clipPath><clipPath id="mx-clip-766-180-184-46-0"><rect x="766" y="180" width="184" height="46"/></clipPath><clipPath id="mx-clip-280-100-30-30-0"><rect x="280" y="100" width="30" height="30"/></clipPath><clipPath id="mx-clip-316-100-194-30-0"><rect x="316" y="100" width="194" height="30"/></clipPath><clipPath id="mx-clip-280-130-30-50-0"><rect x="280" y="130" width="30" height="50"/></clipPath><clipPath id="mx-clip-316-130-194-50-0"><rect x="316" y="130" width="194" height="50"/></clipPath><clipPath id="mx-clip-730-300-30-30-0"><rect x="730" y="300" width="30" height="30"/></clipPath><clipPath id="mx-clip-766-300-186-30-0"><rect x="766" y="300" width="186" height="30"/></clipPath><clipPath id="mx-clip-730-330-30-89-0"><rect x="730" y="330" width="30" height="89"/></clipPath><clipPath id="mx-clip-766-330-186-89-0"><rect x="766" y="330" width="186" height="89"/></clipPath><style type="text/css">@import url(https://fonts.googleapis.com/css2?family=Permanent+Marker:wght@400;500);&#xa;</style></defs><rect fill="#ffffff" width="100%" height="100%" x="0" y="0"/><g><g data-cell-id="5vKg-feYRewpgBYi0P5z-0"><g data-cell-id="5vKg-feYRewpgBYi0P5z-1"><g data-cell-id="5vKg-feYRewpgBYi0P5z-3"><g><path d="M 550 30 L 550 0 L 715 0 L 715 30" fill="rgb(255, 255, 255)" stroke="rgb(0, 0, 0)" stroke-miterlimit="10" pointer-events="all"/><path d="M 550 30 L 550 100 L 715 100 L 715 30" fill="none" stroke="rgb(0, 0, 0)" stroke-miterlimit="10" pointer-events="none"/><path d="M 550 30 L 715 30" fill="none" stroke="rgb(0, 0, 0)" stroke-miterlimit="10" pointer-events="none"/><path d="M 580 30 L 580 60 L 580 90" fill="none" stroke="rgb(0, 0, 0)" stroke-miterlimit="10" pointer-events="none"/></g><g><g fill="rgb(0, 0, 0)" font-family="&quot;Helvetica&quot;" font-weight="bold" text-anchor="middle" font-size="12px"><text x="632" y="19.5">Estudiante</text></g></g><g data-cell-id="5vKg-feYRewpgBYi0P5z-4"><g><path d="M 550 30 M 715 30 M 715 60 L 550 60" fill="none" stroke="rgb(0, 0, 0)" stroke-linecap="square" stroke-miterlimit="10" pointer-events="none"/></g><g data-cell-id="5vKg-feYRewpgBYi0P5z-5"><g><rect x="550" y="30" width="30" height="30" fill="none" stroke="none" pointer-events="all"/><path d="M 550 30 M 580 30 M 580 60 M 550 60" fill="none" stroke="rgb(0, 0, 0)" stroke-linecap="square" stroke-miterlimit="10" pointer-events="all"/></g><g><g fill="rgb(0, 0, 0)" font-family="&quot;Helvetica&quot;" font-weight="bold" clip-path="url(#mx-clip-550-30-30-30-0)" text-anchor="middle" font-size="12px"><text x="564.5" y="49.5">PK</text></g></g></g><g data-cell-id="5vKg-feYRewpgBYi0P5z-6"><g><rect x="580" y="30" width="135" height="30" fill="none" stroke="none" pointer-events="all"/><path d="M 580 30 M 715 30 M 715 60 M 580 60" fill="none" stroke="rgb(0, 0, 0)" stroke-linecap="square" stroke-miterlimit="10" pointer-events="all"/></g><g><g fill="rgb(0, 0, 0)" font-family="&quot;Helvetica&quot;" font-weight="bold" text-decoration="underline" clip-path="url(#mx-clip-586-30-129-30-0)" font-size="12px"><text x="587.5" y="49.5">id int NOT NULL </text></g></g></g></g><g data-cell-id="5vKg-feYRewpgBYi0P5z-7"><g><path d="M 550 60 M 715 60 M 715 90 M 550 90" fill="none" stroke="rgb(0, 0, 0)" stroke-linecap="square" stroke-miterlimit="10" pointer-events="none"/></g><g data-cell-id="5vKg-feYRewpgBYi0P5z-8"><g><rect x="550" y="60" width="30" height="30" fill="none" stroke="none" pointer-events="all"/><path d="M 550 60 M 580 60 M 580 90 M 550 90" fill="none" stroke="rgb(0, 0, 0)" stroke-linecap="square" stroke-miterlimit="10" pointer-events="all"/></g><g><g fill="rgb(0, 0, 0)" font-family="&quot;Helvetica&quot;" clip-path="url(#mx-clip-550-60-30-30-0)" text-anchor="middle" font-size="12px"><text x="564.5" y="79.5">FK1</text></g></g></g><g data-cell-id="5vKg-feYRewpgBYi0P5z-9"><g><rect x="580" y="60" width="135" height="30" fill="none" stroke="none" pointer-events="all"/><path d="M 580 60 M 715 60 M 715 90 M 580 90" fill="none" stroke="rgb(0, 0, 0)" stroke-linecap="square" stroke-miterlimit="10" pointer-events="all"/></g><g><g fill="rgb(0, 0, 0)" font-family="&quot;Helvetica&quot;" clip-path="url(#mx-clip-586-60-129-30-0)" font-size="12px"><text x="587.5" y="79.5">user_id int NOT NULL</text></g></g></g></g></g><g data-cell-id="5vKg-feYRewpgBYi0P5z-114"><g><path d="M 0 195 L 0 165 L 235 165 L 235 195" fill="rgb(255, 255, 255)" stroke="rgb(0, 0, 0)" stroke-miterlimit="10" pointer-events="all"/><path d="M 0 195 L 0 270 L 235 270 L 235 195" fill="none" stroke="rgb(0, 0, 0)" stroke-miterlimit="10" pointer-events="none"/><path d="M 0 195 L 235 195" fill="none" stroke="rgb(0, 0, 0)" stroke-miterlimit="10" pointer-events="none"/><path d="M 30 195 L 30 225 L 30 260" fill="none" stroke="rgb(0, 0, 0)" stroke-miterlimit="10" pointer-events="none"/></g><g><g fill="rgb(0, 0, 0)" font-family="&quot;Helvetica&quot;" font-weight="bold" text-anchor="middle" font-size="12px"><text x="117" y="184.5">likert</text></g></g><g data-cell-id="5vKg-feYRewpgBYi0P5z-115"><g><path d="M 0 195 M 235 195 M 235 225 L 0 225" fill="none" stroke="rgb(0, 0, 0)" stroke-linecap="square" stroke-miterlimit="10" pointer-events="none"/></g><g data-cell-id="5vKg-feYRewpgBYi0P5z-116"><g><rect x="0" y="195" width="30" height="30" fill="none" stroke="none" pointer-events="all"/><path d="M 0 195 M 30 195 M 30 225 M 0 225" fill="none" stroke="rgb(0, 0, 0)" stroke-linecap="square" stroke-miterlimit="10" pointer-events="all"/></g><g><g fill="rgb(0, 0, 0)" font-family="&quot;Helvetica&quot;" font-weight="bold" clip-path="url(#mx-clip-0-195-30-30-0)" text-anchor="middle" font-size="12px"><text x="14.5" y="214.5">PK</text></g></g></g><g data-cell-id="5vKg-feYRewpgBYi0P5z-117"><g><rect x="30" y="195" width="205" height="30" fill="none" stroke="none" pointer-events="all"/><path d="M 30 195 M 235 195 M 235 225 M 30 225" fill="none" stroke="rgb(0, 0, 0)" stroke-linecap="square" stroke-miterlimit="10" pointer-events="all"/></g><g><g fill="rgb(0, 0, 0)" font-family="&quot;Helvetica&quot;" font-weight="bold" text-decoration="underline" clip-path="url(#mx-clip-36-195-199-30-0)" font-size="12px"><text x="37.5" y="214.5">id int NOT NULL </text></g></g></g></g><g data-cell-id="5vKg-feYRewpgBYi0P5z-118"><g><path d="M 0 225 M 235 225 M 235 260 M 0 260" fill="none" stroke="rgb(0, 0, 0)" stroke-linecap="square" stroke-miterlimit="10" pointer-events="none"/></g><g data-cell-id="5vKg-feYRewpgBYi0P5z-119"><g><rect x="0" y="225" width="30" height="35" fill="none" stroke="none" pointer-events="all"/><path d="M 0 225 M 30 225 M 30 260 M 0 260" fill="none" stroke="rgb(0, 0, 0)" stroke-linecap="square" stroke-miterlimit="10" pointer-events="all"/></g><g><g fill="rgb(0, 0, 0)" font-family="&quot;Helvetica&quot;" clip-path="url(#mx-clip-0-225-30-35-0)" text-anchor="middle" font-size="12px"><text x="14.5" y="240">FK</text></g></g></g><g data-cell-id="5vKg-feYRewpgBYi0P5z-120"><g><rect x="30" y="225" width="205" height="35" fill="none" stroke="none" pointer-events="all"/><path d="M 30 225 M 235 225 M 235 260 M 30 260" fill="none" stroke="rgb(0, 0, 0)" stroke-linecap="square" stroke-miterlimit="10" pointer-events="all"/></g><g><g fill="rgb(0, 0, 0)" font-family="&quot;Helvetica&quot;" clip-path="url(#mx-clip-36-225-199-35-0)" font-size="12px"><text x="37.5" y="240">autoevaluacion_id int NOT NULL</text><text x="37.5" y="254">enunciado varchar(255) NOT NULL</text></g></g></g></g></g><g data-cell-id="5vKg-feYRewpgBYi0P5z-129"><g><path d="M 290 260 L 290 230 L 661 230 L 661 260" fill="rgb(255, 255, 255)" stroke="rgb(0, 0, 0)" stroke-miterlimit="10" pointer-events="all"/><path d="M 290 260 L 290 360 L 661 360 L 661 260" fill="none" stroke="rgb(0, 0, 0)" stroke-miterlimit="10" pointer-events="none"/><path d="M 290 260 L 661 260" fill="none" stroke="rgb(0, 0, 0)" stroke-miterlimit="10" pointer-events="none"/><path d="M 320 260 L 320 290 L 320 350" fill="none" stroke="rgb(0, 0, 0)" stroke-miterlimit="10" pointer-events="none"/></g><g><g fill="rgb(0, 0, 0)" font-family="&quot;Helvetica&quot;" font-weight="bold" text-anchor="middle" font-size="12px"><text x="475" y="249.5">Contenido</text></g></g><g data-cell-id="5vKg-feYRewpgBYi0P5z-130"><g><path d="M 290 260 M 661 260 M 661 290 L 290 290" fill="none" stroke="rgb(0, 0, 0)" stroke-linecap="square" stroke-miterlimit="10" pointer-events="none"/></g><g data-cell-id="5vKg-feYRewpgBYi0P5z-131"><g><rect x="290" y="260" width="30" height="30" fill="none" stroke="none" pointer-events="all"/><path d="M 290 260 M 320 260 M 320 290 M 290 290" fill="none" stroke="rgb(0, 0, 0)" stroke-linecap="square" stroke-miterlimit="10" pointer-events="all"/></g><g><g fill="rgb(0, 0, 0)" font-family="&quot;Helvetica&quot;" font-weight="bold" clip-path="url(#mx-clip-290-260-30-30-0)" text-anchor="middle" font-size="12px"><text x="304.5" y="279.5">PK</text></g></g></g><g data-cell-id="5vKg-feYRewpgBYi0P5z-132"><g><rect x="320" y="260" width="341" height="30" fill="none" stroke="none" pointer-events="all"/><path d="M 320 260 M 661 260 M 661 290 M 320 290" fill="none" stroke="rgb(0, 0, 0)" stroke-linecap="square" stroke-miterlimit="10" pointer-events="all"/></g><g><g fill="rgb(0, 0, 0)" font-family="&quot;Helvetica&quot;" font-weight="bold" text-decoration="underline" clip-path="url(#mx-clip-326-260-335-30-0)" font-size="12px"><text x="327.5" y="279.5">id int NOT NULL </text></g></g></g></g><g data-cell-id="5vKg-feYRewpgBYi0P5z-133"><g><path d="M 290 290 M 661 290 M 661 350 M 290 350" fill="none" stroke="rgb(0, 0, 0)" stroke-linecap="square" stroke-miterlimit="10" pointer-events="none"/></g><g data-cell-id="5vKg-feYRewpgBYi0P5z-134"><g><rect x="290" y="290" width="30" height="60" fill="none" stroke="none" pointer-events="all"/><path d="M 290 290 M 320 290 M 320 350 M 290 350" fill="none" stroke="rgb(0, 0, 0)" stroke-linecap="square" stroke-miterlimit="10" pointer-events="all"/></g><g><g fill="rgb(0, 0, 0)" font-family="&quot;Helvetica&quot;" clip-path="url(#mx-clip-290-290-30-60-0)" text-anchor="middle" font-size="12px"><text x="304.5" y="317.5">FK</text></g></g></g><g data-cell-id="5vKg-feYRewpgBYi0P5z-135"><g><rect x="320" y="290" width="341" height="60" fill="none" stroke="none" pointer-events="all"/><path d="M 320 290 M 661 290 M 661 350 M 320 350" fill="none" stroke="rgb(0, 0, 0)" stroke-linecap="square" stroke-miterlimit="10" pointer-events="all"/></g><g><g fill="rgb(0, 0, 0)" font-family="&quot;Helvetica&quot;" clip-path="url(#mx-clip-326-290-335-60-0)" font-size="12px"><text x="327.5" y="310.5">módulo_id int NOT NULL</text><text x="327.5" y="324.5">tipo ENUM ('Nota', 'Autoevaluación', 'Evaluación') NOT NULL</text><text x="327.5" y="338.5">orden int NOT NULL</text></g></g></g></g></g><g data-cell-id="5vKg-feYRewpgBYi0P5z-155"><g><path d="M 730 150 L 730 120 L 950 120 L 950 150" fill="rgb(255, 255, 255)" stroke="rgb(0, 0, 0)" stroke-miterlimit="10" pointer-events="all"/><path d="M 730 150 L 730 236 L 950 236 L 950 150" fill="none" stroke="rgb(0, 0, 0)" stroke-miterlimit="10" pointer-events="none"/><path d="M 730 150 L 950 150" fill="none" stroke="rgb(0, 0, 0)" stroke-miterlimit="10" pointer-events="none"/><path d="M 760 150 L 760 180 L 760 226" fill="none" stroke="rgb(0, 0, 0)" stroke-miterlimit="10" pointer-events="none"/></g><g><g fill="rgb(0, 0, 0)" font-family="&quot;Helvetica&quot;" font-weight="bold" text-anchor="middle" font-size="12px"><text x="839.5" y="139.5">Estudiante_Contenido</text></g></g><g data-cell-id="5vKg-feYRewpgBYi0P5z-156"><g><path d="M 730 150 M 950 150 M 950 180 L 730 180" fill="none" stroke="rgb(0, 0, 0)" stroke-linecap="square" stroke-miterlimit="10" pointer-events="none"/></g><g data-cell-id="5vKg-feYRewpgBYi0P5z-157"><g><rect x="730" y="150" width="30" height="30" fill="none" stroke="none" pointer-events="all"/><path d="M 730 150 M 760 150 M 760 180 M 730 180" fill="none" stroke="rgb(0, 0, 0)" stroke-linecap="square" stroke-miterlimit="10" pointer-events="all"/></g><g><g fill="rgb(0, 0, 0)" font-family="&quot;Helvetica&quot;" font-weight="bold" clip-path="url(#mx-clip-730-150-30-30-0)" text-anchor="middle" font-size="12px"><text x="744.5" y="169.5">PK</text></g></g></g><g data-cell-id="5vKg-feYRewpgBYi0P5z-158"><g><rect x="760" y="150" width="190" height="30" fill="none" stroke="none" pointer-events="all"/><path d="M 760 150 M 950 150 M 950 180 M 760 180" fill="none" stroke="rgb(0, 0, 0)" stroke-linecap="square" stroke-miterlimit="10" pointer-events="all"/></g><g><g fill="rgb(0, 0, 0)" font-family="&quot;Helvetica&quot;" font-weight="bold" text-decoration="underline" clip-path="url(#mx-clip-766-150-184-30-0)" font-size="12px"><text x="767.5" y="169.5">id int NOT NULL </text></g></g></g></g><g data-cell-id="5vKg-feYRewpgBYi0P5z-159"><g><path d="M 730 180 M 950 180 M 950 226 M 730 226" fill="none" stroke="rgb(0, 0, 0)" stroke-linecap="square" stroke-miterlimit="10" pointer-events="none"/></g><g data-cell-id="5vKg-feYRewpgBYi0P5z-160"><g><rect x="730" y="180" width="30" height="46" fill="none" stroke="none" pointer-events="all"/><path d="M 730 180 M 760 180 M 760 226 M 730 226" fill="none" stroke="rgb(0, 0, 0)" stroke-linecap="square" stroke-miterlimit="10" pointer-events="all"/></g><g><g fill="rgb(0, 0, 0)" font-family="&quot;Helvetica&quot;" clip-path="url(#mx-clip-730-180-30-46-0)" text-anchor="middle" font-size="12px"><text x="744.5" y="193.5">FK1</text><text x="744.5" y="207.5">FK2</text></g></g></g><g data-cell-id="5vKg-feYRewpgBYi0P5z-161"><g><rect x="760" y="180" width="190" height="46" fill="none" stroke="none" pointer-events="all"/><path d="M 760 180 M 950 180 M 950 226 M 760 226" fill="none" stroke="rgb(0, 0, 0)" stroke-linecap="square" stroke-miterlimit="10" pointer-events="all"/></g><g><g fill="rgb(0, 0, 0)" font-family="&quot;Helvetica&quot;" clip-path="url(#mx-clip-766-180-184-46-0)" font-size="12px"><text x="767.5" y="193.5">estudiante_id int NOT NULL</text><text x="767.5" y="207.5">contenido_id int NOT NULL</text><text x="767.5" y="221.5">estado varchar(255) NOT NULL</text></g></g></g></g></g><g data-cell-id="5vKg-feYRewpgBYi0P5z-162"><g><path d="M 280 100 L 280 70 L 510 70 L 510 100" fill="rgb(255, 255, 255)" stroke="rgb(0, 0, 0)" stroke-miterlimit="10" pointer-events="all"/><path d="M 280 100 L 280 190 L 510 190 L 510 100" fill="none" stroke="rgb(0, 0, 0)" stroke-miterlimit="10" pointer-events="none"/><path d="M 280 100 L 510 100" fill="none" stroke="rgb(0, 0, 0)" stroke-miterlimit="10" pointer-events="none"/><path d="M 310 100 L 310 130 L 310 180" fill="none" stroke="rgb(0, 0, 0)" stroke-miterlimit="10" pointer-events="none"/></g><g><g fill="rgb(0, 0, 0)" font-family="&quot;Helvetica&quot;" font-weight="bold" text-anchor="middle" font-size="12px"><text x="394.5" y="89.5">Estudiante_Likert</text></g></g><g data-cell-id="5vKg-feYRewpgBYi0P5z-163"><g><path d="M 280 100 M 510 100 M 510 130 L 280 130" fill="none" stroke="rgb(0, 0, 0)" stroke-linecap="square" stroke-miterlimit="10" pointer-events="none"/></g><g data-cell-id="5vKg-feYRewpgBYi0P5z-164"><g><rect x="280" y="100" width="30" height="30" fill="none" stroke="none" pointer-events="all"/><path d="M 280 100 M 310 100 M 310 130 M 280 130" fill="none" stroke="rgb(0, 0, 0)" stroke-linecap="square" stroke-miterlimit="10" pointer-events="all"/></g><g><g fill="rgb(0, 0, 0)" font-family="&quot;Helvetica&quot;" font-weight="bold" clip-path="url(#mx-clip-280-100-30-30-0)" text-anchor="middle" font-size="12px"><text x="294.5" y="119.5">PK</text></g></g></g><g data-cell-id="5vKg-feYRewpgBYi0P5z-165"><g><rect x="310" y="100" width="200" height="30" fill="none" stroke="none" pointer-events="all"/><path d="M 310 100 M 510 100 M 510 130 M 310 130" fill="none" stroke="rgb(0, 0, 0)" stroke-linecap="square" stroke-miterlimit="10" pointer-events="all"/></g><g><g fill="rgb(0, 0, 0)" font-family="&quot;Helvetica&quot;" font-weight="bold" text-decoration="underline" clip-path="url(#mx-clip-316-100-194-30-0)" font-size="12px"><text x="317.5" y="119.5">id int NOT NULL </text></g></g></g></g><g data-cell-id="5vKg-feYRewpgBYi0P5z-166"><g><path d="M 280 130 M 510 130 M 510 180 M 280 180" fill="none" stroke="rgb(0, 0, 0)" stroke-linecap="square" stroke-miterlimit="10" pointer-events="none"/></g><g data-cell-id="5vKg-feYRewpgBYi0P5z-167"><g><rect x="280" y="130" width="30" height="50" fill="none" stroke="none" pointer-events="all"/><path d="M 280 130 M 310 130 M 310 180 M 280 180" fill="none" stroke="rgb(0, 0, 0)" stroke-linecap="square" stroke-miterlimit="10" pointer-events="all"/></g><g><g fill="rgb(0, 0, 0)" font-family="&quot;Helvetica&quot;" clip-path="url(#mx-clip-280-130-30-50-0)" text-anchor="middle" font-size="12px"><text x="294.5" y="145.5">FK1</text><text x="294.5" y="159.5">FK2</text></g></g></g><g data-cell-id="5vKg-feYRewpgBYi0P5z-168"><g><rect x="310" y="130" width="200" height="50" fill="none" stroke="none" pointer-events="all"/><path d="M 310 130 M 510 130 M 510 180 M 310 180" fill="none" stroke="rgb(0, 0, 0)" stroke-linecap="square" stroke-miterlimit="10" pointer-events="all"/></g><g><g fill="rgb(0, 0, 0)" font-family="&quot;Helvetica&quot;" clip-path="url(#mx-clip-316-130-194-50-0)" font-size="12px"><text x="317.5" y="145.5">estudiante_id int NOT NULL</text><text x="317.5" y="159.5">likert_id int NOT NULL</text><text x="317.5" y="173.5">selection varchar(255) NOT NULL</text></g></g></g></g></g><g data-cell-id="5vKg-feYRewpgBYi0P5z-170"><g><path d="M 235 210 L 257.5 210 L 257.5 149.7 L 276.16 149.66" fill="none" stroke="rgb(0, 0, 0)" stroke-miterlimit="10" pointer-events="stroke"/><path d="M 281.41 149.65 L 274.42 153.17 L 276.16 149.66 L 274.41 146.17 Z" fill="rgb(0, 0, 0)" stroke="rgb(0, 0, 0)" stroke-miterlimit="10" pointer-events="all"/></g></g><g data-cell-id="5vKg-feYRewpgBYi0P5z-171"><g><path d="M 730 300 L 730 270 L 952 270 L 952 300" fill="rgb(255, 255, 255)" stroke="rgb(0, 0, 0)" stroke-miterlimit="10" pointer-events="all"/><path d="M 730 300 L 730 429 L 952 429 L 952 300" fill="none" stroke="rgb(0, 0, 0)" stroke-miterlimit="10" pointer-events="none"/><path d="M 730 300 L 952 300" fill="none" stroke="rgb(0, 0, 0)" stroke-miterlimit="10" pointer-events="none"/><path d="M 760 300 L 760 330 L 760 419" fill="none" stroke="rgb(0, 0, 0)" stroke-miterlimit="10" pointer-events="none"/></g><g><g fill="rgb(0, 0, 0)" font-family="&quot;Helvetica&quot;" font-weight="bold" text-anchor="middle" font-size="12px"><text x="840.5" y="289.5">View_Content</text></g></g><g data-cell-id="5vKg-feYRewpgBYi0P5z-172"><g><path d="M 730 300 M 952 300 M 952 330 L 730 330" fill="none" stroke="rgb(0, 0, 0)" stroke-linecap="square" stroke-miterlimit="10" pointer-events="none"/></g><g data-cell-id="5vKg-feYRewpgBYi0P5z-173"><g><rect x="730" y="300" width="30" height="30" fill="none" stroke="none" pointer-events="all"/><path d="M 730 300 M 760 300 M 760 330 M 730 330" fill="none" stroke="rgb(0, 0, 0)" stroke-linecap="square" stroke-miterlimit="10" pointer-events="all"/></g><g><g fill="rgb(0, 0, 0)" font-family="&quot;Helvetica&quot;" font-weight="bold" clip-path="url(#mx-clip-730-300-30-30-0)" text-anchor="middle" font-size="12px"><text x="744.5" y="319.5">PK</text></g></g></g><g data-cell-id="5vKg-feYRewpgBYi0P5z-174"><g><rect x="760" y="300" width="192" height="30" fill="none" stroke="none" pointer-events="all"/><path d="M 760 300 M 952 300 M 952 330 M 760 330" fill="none" stroke="rgb(0, 0, 0)" stroke-linecap="square" stroke-miterlimit="10" pointer-events="all"/></g><g><g fill="rgb(0, 0, 0)" font-family="&quot;Helvetica&quot;" font-weight="bold" text-decoration="underline" clip-path="url(#mx-clip-766-300-186-30-0)" font-size="12px"><text x="767.5" y="319.5">id int NOT NULL </text></g></g></g></g><g data-cell-id="5vKg-feYRewpgBYi0P5z-175"><g><path d="M 730 330 M 952 330 M 952 419 M 730 419" fill="none" stroke="rgb(0, 0, 0)" stroke-linecap="square" stroke-miterlimit="10" pointer-events="none"/></g><g data-cell-id="5vKg-feYRewpgBYi0P5z-176"><g><rect x="730" y="330" width="30" height="89" fill="none" stroke="none" pointer-events="all"/><path d="M 730 330 M 760 330 M 760 419 M 730 419" fill="none" stroke="rgb(0, 0, 0)" stroke-linecap="square" stroke-miterlimit="10" pointer-events="all"/></g><g><g fill="rgb(0, 0, 0)" font-family="&quot;Helvetica&quot;" clip-path="url(#mx-clip-730-330-30-89-0)" text-anchor="middle" font-size="12px"><text x="744.5" y="344">FK1</text><text x="744.5" y="358">FK2</text></g></g></g><g data-cell-id="5vKg-feYRewpgBYi0P5z-177"><g><rect x="760" y="330" width="192" height="89" fill="none" stroke="none" pointer-events="all"/><path d="M 760 330 M 952 330 M 952 419 M 760 419" fill="none" stroke="rgb(0, 0, 0)" stroke-linecap="square" stroke-miterlimit="10" pointer-events="all"/></g><g><g fill="rgb(0, 0, 0)" font-family="&quot;Helvetica&quot;" clip-path="url(#mx-clip-766-330-186-89-0)" font-size="12px"><rect fill="rgb(255, 255, 255)" stroke="none" x="768" y="332" width="177" height="87" stroke-width="0"/><text x="767.5" y="344">estudiante_id int NOT NULL</text><text x="767.5" y="358">contenido_id int NOT NULL</text><text x="767.5" y="372">start_view timestamp NOT NULL</text><text x="767.5" y="386">end_view timestamp</text><text x="767.5" y="400">time_view time</text><text x="767.5" y="414">porcentaje float </text></g></g></g></g></g><g data-cell-id="H_vTsb7rbXK2sEGbzVfd-0"><g><path d="M 550 45 L 530 45 L 530 155 L 516.37 155" fill="none" stroke="rgb(0, 0, 0)" stroke-miterlimit="10" pointer-events="stroke"/><path d="M 511.12 155 L 518.12 151.5 L 516.37 155 L 518.12 158.5 Z" fill="rgb(0, 0, 0)" stroke="rgb(0, 0, 0)" stroke-miterlimit="10" pointer-events="all"/></g></g><g data-cell-id="H_vTsb7rbXK2sEGbzVfd-1"><g><path d="M 661 275 L 695.5 275 L 695.5 197.4 L 725.39 197.43" fill="none" stroke="rgb(0, 0, 0)" stroke-miterlimit="10" pointer-events="stroke"/><path d="M 730.64 197.43 L 723.64 200.93 L 725.39 197.43 L 723.65 193.93 Z" fill="rgb(0, 0, 0)" stroke="rgb(0, 0, 0)" stroke-miterlimit="10" pointer-events="all"/></g></g><g data-cell-id="H_vTsb7rbXK2sEGbzVfd-2"><g><path d="M 661 275 L 695.5 275 L 695.5 374.5 L 723.63 374.5" fill="none" stroke="rgb(0, 0, 0)" stroke-miterlimit="10" pointer-events="stroke"/><path d="M 728.88 374.5 L 721.88 378 L 723.63 374.5 L 721.88 371 Z" fill="rgb(0, 0, 0)" stroke="rgb(0, 0, 0)" stroke-miterlimit="10" pointer-events="all"/></g></g><g data-cell-id="H_vTsb7rbXK2sEGbzVfd-3"><g><path d="M 715 45 L 970 45 L 970 203 L 956.37 203" fill="none" stroke="rgb(0, 0, 0)" stroke-miterlimit="10" pointer-events="stroke"/><path d="M 951.12 203 L 958.12 199.5 L 956.37 203 L 958.12 206.5 Z" fill="rgb(0, 0, 0)" stroke="rgb(0, 0, 0)" stroke-miterlimit="10" pointer-events="all"/></g></g><g data-cell-id="H_vTsb7rbXK2sEGbzVfd-4"><g><path d="M 715 45 L 990 45 L 990 374.5 L 958.37 374.5" fill="none" stroke="rgb(0, 0, 0)" stroke-miterlimit="10" pointer-events="stroke"/><path d="M 953.12 374.5 L 960.12 371 L 958.37 374.5 L 960.12 378 Z" fill="rgb(0, 0, 0)" stroke="rgb(0, 0, 0)" stroke-miterlimit="10" pointer-events="all"/></g></g></g></g></g></svg>